^E:\MATERIALY\PROJEKTY\C\SFMLINFA\SFMLINFA\X64\DEBUG\ANIMATION.OBJ|E:\MATERIALY\PROJEKTY\C\SFMLINFA\SFMLINFA\X64\DEBUG\EXITPROMPT.OBJ|E:\MATERIALY\PROJEKTY\C\SFMLINFA\SFMLINFA\X64\DEBUG\MAIN.OBJ|E:\MATERIALY\PROJEKTY\C\SFMLINFA\SFMLINFA\X64\DEBUG\MENU.OBJ|E:\MATERIALY\PROJEKTY\C\SFMLINFA\SFMLINFA\X64\DEBUG\OBJECT.OBJ
E:\MATERIALY\PROJEKTY\C\SFMLINFA\X64\DEBUG\SFMLINFA.EXE
E:\MATERIALY\PROJEKTY\C\SFMLINFA\X64\DEBUG\SFMLINFA.ILK
E:\MATERIALY\PROJEKTY\C\SFMLINFA\X64\DEBUG\SFMLINFA.PDB
